[
  {
    "ID": "sv01",
    "Name": "Tai",
    "Class": "12A1",
    "Score1": 8,
    "Score2": 8,
    "Score3": 8,
    "Score4": 8,
    "Details": {
      "Address": "Q1",
      "Phone": "0123"
    }
  },
  {
    "ID": "sv02",
    "Name": "Thanh",
    "Class": "12A2",
    "Score1": 8,
    "Score2": 8,
    "Score3": 8,
    "Score4": 8,
    "Details": {
      "Address": "Q2",
      "Phone": "01235"
    }
  },
  {
    "ID": "sv03",
    "Name": "Trang",
    "Class": "12A3",
    "Score1": 8,
    "Score2": 8,
    "Score3": 8,
    "Score4": 8,
    "Details": {
      "Address": "Q3",
      "Phone": "01234"
    }
  },
  {
    "ID": "sv04",
    "Name": "Tung",
    "Class": "12A4",
    "Score1": 8,
    "Score2": 8,
    "Score3": 8,
    "Score4": 8,
    "Details": {
      "Address": "Q4",
      "Phone": "012324"
    }
  },
  {
    "ID": "sv05",
    "Name": "Trung",
    "Class": "12A5",
    "Score1": 8,
    "Score2": 8,
    "Score3": 8,
    "Score4": 8,
    "Details": {
      "Address": "Q5",
      "Phone": "012314"
    }
  },
  {
    "ID": "sv06",
    "Name": "Trong",
    "Class": "12A6",
    "Score1": 8,
    "Score2": 8,
    "Score3": 8,
    "Score4": 8,
    "Details": {
      "Address": "Q6",
      "Phone": "0122134"
    }
  },
  {
    "ID": "sv07",
    "Name": "Tri",
    "Class": "12A7",
    "Score1": 8,
    "Score2": 8,
    "Score3": 8,
    "Score4": 8,
    "Details": {
      "Address": "Q7",
      "Phone": "01234"
    }
  },
  {
    "ID": "sv08",
    "Name": "Tran",
    "Class": "12A1",
    "Score1": 8,
    "Score2": 8,
    "Score3": 8,
    "Score4": 8,
    "Details": {
      "Address": "Q5",
      "Phone": "01212334"
    }
  },
  {
    "ID": "sv09",
    "Name": "Trat",
    "Class": "12A3",
    "Score1": 8,
    "Score2": 8,
    "Score3": 8,
    "Score4": 8,
    "Details": {
      "Address": "Q2",
      "Phone": "0123234"
    }
  },
  {
    "ID": "sv10",
    "Name": "Truc",
    "Class": "12A6",
    "Score1": 8,
    "Score2": 8,
    "Score3": 8,
    "Score4": 8,
    "Details": {
      "Address": "Q6",
      "Phone": "01234"
    }
  },
  {
    "ID": "sv11",
    "Name": "Truc",
    "Class": "12A2",
    "Score1": 8,
    "Score2": 8,
    "Score3": 8,
    "Score4": 8,
    "Details": {
      "Address": "Q8",
      "Phone": "01234"
    }
  },
  {
    "ID": "sv12",
    "Name": "Trinh",
    "Class": "12A9",
    "Score1": 8,
    "Score2": 8,
    "Score3": 8,
    "Score4": 8,
    "Details": {
      "Address": "Q7",
      "Phone": "0123234"
    }
  },
  {
    "ID": "sv013",
    "Name": "Trang",
    "Class": "12A5",
    "Score1": 8,
    "Score2": 8,
    "Score3": 8,
    "Score4": 8,
    "Details": {
      "Address": "Q4",
      "Phone": "013234"
    }
  },
  {
    "ID": "sv14",
    "Name": "Trinh",
    "Class": "12A8",
    "Score1": 8,
    "Score2": 8,
    "Score3": 8,
    "Score4": 8,
    "Details": {
      "Address": "Q9",
      "Phone": "012234"
    }
  },
  {
    "ID": "sv15",
    "Name": "Ha",
    "Class": "12A10",
    "Score1": 8,
    "Score2": 8,
    "Score3": 8,
    "Score4": 8,
    "Details": {
      "Address": "Q10",
      "Phone": "0123234"
    }
  },
  {
    "ID": "sv016",
    "Name": "Hanh",
    "Class": "12A5",
    "Score1": 8,
    "Score2": 8,
    "Score3": 8,
    "Score4": 8,
    "Details": {
      "Address": "Q3",
      "Phone": "0144234"
    }
  }
]
